        /*
        for (int i = 0; 1; i += 2)
        {
            if (n-i == 4)
            {
                logTime(STD_LOG, "bezhe" "\tn-i == 4");
                ar[0] = cast(content.listPoint[i]->value);
                ar[1] = cast(content.listPoint[i+1]->value);
                ar[2] = cast(content.listPoint[i+2]->value);
                ar[3] = cast(content.listPoint[i+3]->value);
                ui->canvas->drawBezhe(ar, 4, ivcolor::yellow);
                break;
            }
            ar[0] = cast(content.listPoint[i]->value);
            ar[1] = cast(content.listPoint[i+1]->value);
            ar[2] = cast(content.listPoint[i+2]->value);
            ui->canvas->drawBezhe(ar, 3, ivcolor::yellow);

            if (n-i == 3)
                break;
        }
        */